{
  "defaultSeverity": "error",
  "extends": [
    "tslint:recommended"
  ],
  "jsRules": {},
  "rules": {
    "no-console": false,
    "quotemark": false,
    "trailing-comma": false,
    "object-literal-sort-keys": false,
    "max-line-length": {
      "options": {
        "limit": 256
      }
    }
  },
  "rulesDirectory": []
}